^C:\USERS\USER1\DOCUMENTS\VISUAL STUDIO 2015\PROJECTS\TASK_A1\TASK_A1\SOURCE.CPP
C:\USERS\USER1\DOCUMENTS\VISUAL STUDIO 2015\PROJECTS\TASK_A1\TASK_A1\DEBUG\VC140.PDB
C:\USERS\USER1\DOCUMENTS\VISUAL STUDIO 2015\PROJECTS\TASK_A1\TASK_A1\DEBUG\VC140.IDB
C:\USERS\USER1\DOCUMENTS\VISUAL STUDIO 2015\PROJECTS\TASK_A1\TASK_A1\DEBUG\SOURCE.OBJ
